[estradadobem.press/index.html]
[backblue.gif]
[fade.gif]
[index.html]
[stackpath.bootstrapcdn.com/bootstrap/4.1.1/css/bootstrap.min.css]
[estradadobem.press/style.css]
[estradadobem.press/imagens/tdesk.png]
[estradadobem.press/imagens/tmobile.png]
[estradadobem.press/termos-de-uso.html]
[code.jquery.com/jquery-3.3.1.slim.min.js]
[stackpath.bootstrapcdn.com/bootstrap/4.1.1/js/bootstrap.min.js]
[cdnjs.cloudflare.com/ajax/libs/js-cookie/latest/js.cookie.min.js]
[estradadobem.press/tracker.js]
[estradadobem.press/index.html]
[stackpath.bootstrapcdn.com/bootstrap/4.1.1/css/bootstrap.min.css]
[estradadobem.press/style.css]
[estradadobem.press/functions.js]
[estradadobem.press/politicas-de-privacidade.html]
[maxcdn.bootstrapcdn.com/bootstrap/4.0.0/css/bootstrap.min.css]
[code.jquery.com/jquery-3.2.1.slim.min.js]
[cdnjs.cloudflare.com/ajax/libs/popper.js/1.12.9/umd/popper.min.js]
[maxcdn.bootstrapcdn.com/bootstrap/4.0.0/js/bootstrap.min.js]
[estradadobem.press/termos-de-uso.html]
[estradadobem.press/politicas-de-privacidade.html]
[maxcdn.bootstrapcdn.com/bootstrap/4.0.0/css/bootstrap.min.css]
[estradadobem.press/img/corpo-slim.html]
